{"tracks": {"href": "https://api.spotify.com/v1/search?query=Perfect+Time+Roddy+Ricch&type=track&offset=0&limit=3", "items": [{"album": {"album_type": "album", "artists": [{"external_urls": {"spotify": "https://open.spotify.com/artist/757aE44tKEUQEqRuT6GnEB"}, "href": "https://api.spotify.com/v1/artists/757aE44tKEUQEqRuT6GnEB", "id": "757aE44tKEUQEqRuT6GnEB", "name": "Roddy Ricch", "type": "artist", "uri": "spotify:artist:757aE44tKEUQEqRuT6GnEB"}], "available_markets": ["AD", "AE", "AG", "AL", "AM", "AO", "AR", "AT", "AU", "AZ", "BA", "BB", "BD", "BE", "BF", "BG", "BH", "BI", "BJ", "BN", "BO", "BR", "BS", "BT", "BW", "BY", "BZ", "CA", "CD", "CG", "CH", "CI", "CL", "CM", "CO", "CR", "CV", "CW", "CY", "CZ", "DE", "DJ", "DK", "DM", "DO", "DZ", "EC", "EE", "EG", "ES", "FI", "FJ", "FM", "FR", "GA", "GB", "GD", "GE", "GH", "GM", "GN", "GQ", "GR", "GT", "GW", "GY", "HK", "HN", "HR", "HT", "HU", "ID", "IE", "IL", "IN", "IQ", "IS", "IT", "JM", "JO", "JP", "KE", "KG", "KH", "KI", "KM", "KN", "KR", "KW", "KZ", "LA", "LB", "LC", "LI", "LK", "LR", "LS", "LT", "LU", "LV", "LY", "MA", "MC", "MD", "ME", "MG", "MH", "MK", "ML", "MN", "MO", "MR", "MT", "MU", "MV", "MW", "MX", "MY", "MZ", "NA", "NE", "NG", "NI", "NL", "NO", "NP", "NR", "NZ", "OM", "PA", "PE", "PG", "PH", "PK", "PL", "PS", "PT", "PW", "PY", "QA", "RO", "RS", "RW", "SA", "SB", "SC", "SE", "SG", "SI", "SK", "SL", "SM", "SN", "SR", "ST", "SV", "SZ", "TD", "TG", "TH", "TJ", "TL", "TN", "TO", "TR", "TT", "TV", "TW", "TZ", "UA", "UG", "US", "UY", "UZ", "VC", "VE", "VN", "VU", "WS", "XK", "ZA", "ZM", "ZW"], "external_urls": {"spotify": "https://open.spotify.com/album/52u4anZbHd6UInnmHRFzba"}, "href": "https://api.spotify.com/v1/albums/52u4anZbHd6UInnmHRFzba", "id": "52u4anZbHd6UInnmHRFzba", "images": [{"height": 640, "url": "https://i.scdn.co/image/ab67616d0000b273600adbc750285ea1a8da249f", "width": 640}, {"height": 300, "url": "https://i.scdn.co/image/ab67616d00001e02600adbc750285ea1a8da249f", "width": 300}, {"height": 64, "url": "https://i.scdn.co/image/ab67616d00004851600adbc750285ea1a8da249f", "width": 64}], "name": "Please Excuse Me for Being Antisocial", "release_date": "2019-12-06", "release_date_precision": "day", "total_tracks": 16, "type": "album", "uri": "spotify:album:52u4anZbHd6UInnmHRFzba"}, "artists": [{"external_urls": {"spotify": "https://open.spotify.com/artist/757aE44tKEUQEqRuT6GnEB"}, "href": "https://api.spotify.com/v1/artists/757aE44tKEUQEqRuT6GnEB", "id": "757aE44tKEUQEqRuT6GnEB", "name": "Roddy Ricch", "type": "artist", "uri": "spotify:artist:757aE44tKEUQEqRuT6GnEB"}], "available_markets": ["AD", "AE", "AG", "AL", "AM", "AO", "AR", "AT", "AU", "AZ", "BA", "BB", "BD", "BE", "BF", "BG", "BH", "BI", "BJ", "BN", "BO", "BR", "BS", "BT", "BW", "BY", "BZ", "CA", "CD", "CG", "CH", "CI", "CL", "CM", "CO", "CR", "CV", "CW", "CY", "CZ", "DE", "DJ", "DK", "DM", "DO", "DZ", "EC", "EE", "EG", "ES", "FI", "FJ", "FM", "FR", "GA", "GB", "GD", "GE", "GH", "GM", "GN", "GQ", "GR", "GT", "GW", "GY", "HK", "HN", "HR", "HT", "HU", "ID", "IE", "IL", "IN", "IQ", "IS", "IT", "JM", "JO", "JP", "KE", "KG", "KH", "KI", "KM", "KN", "KR", "KW", "KZ", "LA", "LB", "LC", "LI", "LK", "LR", "LS", "LT", "LU", "LV", "LY", "MA", "MC", "MD", "ME", "MG", "MH", "MK", "ML", "MN", "MO", "MR", "MT", "MU", "MV", "MW", "MX", "MY", "MZ", "NA", "NE", "NG", "NI", "NL", "NO", "NP", "NR", "NZ", "OM", "PA", "PE", "PG", "PH", "PK", "PL", "PS", "PT", "PW", "PY", "QA", "RO", "RS", "RW", "SA", "SB", "SC", "SE", "SG", "SI", "SK", "SL", "SM", "SN", "SR", "ST", "SV", "SZ", "TD", "TG", "TH", "TJ", "TL", "TN", "TO", "TR", "TT", "TV", "TW", "TZ", "UA", "UG", "US", "UY", "UZ", "VC", "VE", "VN", "VU", "WS", "XK", "ZA", "ZM", "ZW"], "disc_number": 1, "duration_ms": 142710, "explicit": true, "external_ids": {"isrc": "USAT21906979"}, "external_urls": {"spotify": "https://open.spotify.com/track/6kiIVIbmwEw6JvIZc7UG0E"}, "href": "https://api.spotify.com/v1/tracks/6kiIVIbmwEw6JvIZc7UG0E", "id": "6kiIVIbmwEw6JvIZc7UG0E", "is_local": false, "name": "Perfect Time", "popularity": 52, "preview_url": "https://p.scdn.co/mp3-preview/c7413c009eb32e673bca81248756a7eebc5e5ab2?cid=774b29d4f13844c495f206cafdad9c86", "track_number": 4, "type": "track", "uri": "spotify:track:6kiIVIbmwEw6JvIZc7UG0E"}, {"album": {"album_type": "single", "artists": [{"external_urls": {"spotify": "https://open.spotify.com/artist/4qarW7lXifZjSr9En26UO3"}, "href": "https://api.spotify.com/v1/artists/4qarW7lXifZjSr9En26UO3", "id": "4qarW7lXifZjSr9En26UO3", "name": "VGO", "type": "artist", "uri": "spotify:artist:4qarW7lXifZjSr9En26UO3"}], "available_markets": ["AD", "AE", "AG", "AL", "AM", "AO", "AR", "AT", "AU", "AZ", "BA", "BB", "BD", "BE", "BF", "BG", "BH", "BI", "BJ", "BN", "BO", "BR", "BS", "BT", "BW", "BY", "BZ", "CA", "CD", "CG", "CH", "CI", "CL", "CM", "CO", "CR", "CV", "CW", "CY", "CZ", "DE", "DJ", "DK", "DM", "DO", "DZ", "EC", "EE", "EG", "ES", "FI", "FJ", "FM", "FR", "GA", "GB", "GD", "GE", "GH", "GM", "GN", "GQ", "GR", "GT", "GW", "GY", "HK", "HN", "HR", "HT", "HU", "ID", "IE", "IL", "IN", "IQ", "IS", "IT", "JM", "JO", "JP", "KE", "KG", "KH", "KI", "KM", "KN", "KR", "KW", "KZ", "LA", "LB", "LC", "LI", "LK", "LR", "LS", "LT", "LU", "LV", "LY", "MA", "MC", "MD", "ME", "MG", "MH", "MK", "ML", "MN", "MO", "MR", "MT", "MU", "MV", "MW", "MX", "MY", "MZ", "NA", "NE", "NG", "NI", "NL", "NO", "NP", "NR", "NZ", "OM", "PA", "PE", "PG", "PH", "PK", "PL", "PS", "PT", "PW", "PY", "QA", "RO", "RS", "RW", "SA", "SB", "SC", "SE", "SG", "SI", "SK", "SL", "SM", "SN", "SR", "ST", "SV", "SZ", "TD", "TG", "TH", "TJ", "TL", "TN", "TO", "TR", "TT", "TV", "TW", "TZ", "UA", "UG", "US", "UY", "UZ", "VC", "VE", "VN", "VU", "WS", "XK", "ZA", "ZM", "ZW"], "external_urls": {"spotify": "https://open.spotify.com/album/3Udi2vbSe9YhzUzNWKlTnc"}, "href": "https://api.spotify.com/v1/albums/3Udi2vbSe9YhzUzNWKlTnc", "id": "3Udi2vbSe9YhzUzNWKlTnc", "images": [{"height": 640, "url": "https://i.scdn.co/image/ab67616d0000b273133bae4d7752393d153baf5f", "width": 640}, {"height": 300, "url": "https://i.scdn.co/image/ab67616d00001e02133bae4d7752393d153baf5f", "width": 300}, {"height": 64, "url": "https://i.scdn.co/image/ab67616d00004851133bae4d7752393d153baf5f", "width": 64}], "name": "Roddy Richh", "release_date": "2021-01-29", "release_date_precision": "day", "total_tracks": 2, "type": "album", "uri": "spotify:album:3Udi2vbSe9YhzUzNWKlTnc"}, "artists": [{"external_urls": {"spotify": "https://open.spotify.com/artist/4qarW7lXifZjSr9En26UO3"}, "href": "https://api.spotify.com/v1/artists/4qarW7lXifZjSr9En26UO3", "id": "4qarW7lXifZjSr9En26UO3", "name": "VGO", "type": "artist", "uri": "spotify:artist:4qarW7lXifZjSr9En26UO3"}], "available_markets": ["AD", "AE", "AG", "AL", "AM", "AO", "AR", "AT", "AU", "AZ", "BA", "BB", "BD", "BE", "BF", "BG", "BH", "BI", "BJ", "BN", "BO", "BR", "BS", "BT", "BW", "BY", "BZ", "CA", "CD", "CG", "CH", "CI", "CL", "CM", "CO", "CR", "CV", "CW", "CY", "CZ", "DE", "DJ", "DK", "DM", "DO", "DZ", "EC", "EE", "EG", "ES", "FI", "FJ", "FM", "FR", "GA", "GB", "GD", "GE", "GH", "GM", "GN", "GQ", "GR", "GT", "GW", "GY", "HK", "HN", "HR", "HT", "HU", "ID", "IE", "IL", "IN", "IQ", "IS", "IT", "JM", "JO", "JP", "KE", "KG", "KH", "KI", "KM", "KN", "KR", "KW", "KZ", "LA", "LB", "LC", "LI", "LK", "LR", "LS", "LT", "LU", "LV", "LY", "MA", "MC", "MD", "ME", "MG", "MH", "MK", "ML", "MN", "MO", "MR", "MT", "MU", "MV", "MW", "MX", "MY", "MZ", "NA", "NE", "NG", "NI", "NL", "NO", "NP", "NR", "NZ", "OM", "PA", "PE", "PG", "PH", "PK", "PL", "PS", "PT", "PW", "PY", "QA", "RO", "RS", "RW", "SA", "SB", "SC", "SE", "SG", "SI", "SK", "SL", "SM", "SN", "SR", "ST", "SV", "SZ", "TD", "TG", "TH", "TJ", "TL", "TN", "TO", "TR", "TT", "TV", "TW", "TZ", "UA", "UG", "US", "UY", "UZ", "VC", "VE", "VN", "VU", "WS", "XK", "ZA", "ZM", "ZW"], "disc_number": 1, "duration_ms": 131076, "explicit": true, "external_ids": {"isrc": "QMGR32272696"}, "external_urls": {"spotify": "https://open.spotify.com/track/3WH3KvFqdgQSlVmQ7hpebA"}, "href": "https://api.spotify.com/v1/tracks/3WH3KvFqdgQSlVmQ7hpebA", "id": "3WH3KvFqdgQSlVmQ7hpebA", "is_local": false, "name": "Roddy Richh", "popularity": 5, "preview_url": "https://p.scdn.co/mp3-preview/335a09eb25836462cda514031ce58b3f28978b0a?cid=774b29d4f13844c495f206cafdad9c86", "track_number": 1, "type": "track", "uri": "spotify:track:3WH3KvFqdgQSlVmQ7hpebA"}, {"album": {"album_type": "album", "artists": [{"external_urls": {"spotify": "https://open.spotify.com/artist/757aE44tKEUQEqRuT6GnEB"}, "href": "https://api.spotify.com/v1/artists/757aE44tKEUQEqRuT6GnEB", "id": "757aE44tKEUQEqRuT6GnEB", "name": "Roddy Ricch", "type": "artist", "uri": "spotify:artist:757aE44tKEUQEqRuT6GnEB"}], "available_markets": ["AD", "AE", "AG", "AL", "AM", "AO", "AR", "AT", "AU", "AZ", "BA", "BB", "BD", "BE", "BF", "BG", "BH", "BI", "BJ", "BN", "BO", "BR", "BS", "BT", "BW", "BY", "BZ", "CA", "CD", "CG", "CH", "CI", "CL", "CM", "CO", "CR", "CV", "CW", "CY", "CZ", "DE", "DJ", "DK", "DM", "DO", "DZ", "EC", "EE", "EG", "ES", "FI", "FJ", "FM", "FR", "GA", "GB", "GD", "GE", "GH", "GM", "GN", "GQ", "GR", "GT", "GW", "GY", "HK", "HN", "HR", "HT", "HU", "ID", "IE", "IL", "IN", "IQ", "IS", "IT", "JM", "JO", "JP", "KE", "KG", "KH", "KI", "KM", "KN", "KR", "KW", "KZ", "LA", "LB", "LC", "LI", "LK", "LR", "LS", "LT", "LU", "LV", "LY", "MA", "MC", "MD", "ME", "MG", "MH", "MK", "ML", "MN", "MO", "MR", "MT", "MU", "MV", "MW", "MX", "MY", "MZ", "NA", "NE", "NG", "NI", "NL", "NO", "NP", "NR", "NZ", "OM", "PA", "PE", "PG", "PH", "PK", "PL", "PS", "PT", "PW", "PY", "QA", "RO", "RS", "RW", "SA", "SB", "SC", "SE", "SG", "SI", "SK", "SL", "SM", "SN", "SR", "ST", "SV", "SZ", "TD", "TG", "TH", "TJ", "TL", "TN", "TO", "TR", "TT", "TV", "TW", "TZ", "UA", "UG", "US", "UY", "UZ", "VC", "VE", "VN", "VU", "WS", "XK", "ZA", "ZM", "ZW"], "external_urls": {"spotify": "https://open.spotify.com/album/1jlIU9p7PChTK3AeqNpnsX"}, "href": "https://api.spotify.com/v1/albums/1jlIU9p7PChTK3AeqNpnsX", "id": "1jlIU9p7PChTK3AeqNpnsX", "images": [{"height": 640, "url": "https://i.scdn.co/image/ab67616d0000b273434f4eeb4231f6f4862cafd4", "width": 640}, {"height": 300, "url": "https://i.scdn.co/image/ab67616d00001e02434f4eeb4231f6f4862cafd4", "width": 300}, {"height": 64, "url": "https://i.scdn.co/image/ab67616d00004851434f4eeb4231f6f4862cafd4", "width": 64}], "name": "Feed Tha Streets II", "release_date": "2018-11-02", "release_date_precision": "day", "total_tracks": 12, "type": "album", "uri": "spotify:album:1jlIU9p7PChTK3AeqNpnsX"}, "artists": [{"external_urls": {"spotify": "https://open.spotify.com/artist/757aE44tKEUQEqRuT6GnEB"}, "href": "https://api.spotify.com/v1/artists/757aE44tKEUQEqRuT6GnEB", "id": "757aE44tKEUQEqRuT6GnEB", "name": "Roddy Ricch", "type": "artist", "uri": "spotify:artist:757aE44tKEUQEqRuT6GnEB"}], "available_markets": ["AD", "AE", "AG", "AL", "AM", "AO", "AR", "AT", "AU", "AZ", "BA", "BB", "BD", "BE", "BF", "BG", "BH", "BI", "BJ", "BN", "BO", "BR", "BS", "BT", "BW", "BY", "BZ", "CA", "CD", "CG", "CH", "CI", "CL", "CM", "CO", "CR", "CV", "CW", "CY", "CZ", "DE", "DJ", "DK", "DM", "DO", "DZ", "EC", "EE", "EG", "ES", "FI", "FJ", "FM", "FR", "GA", "GB", "GD", "GE", "GH", "GM", "GN", "GQ", "GR", "GT", "GW", "GY", "HK", "HN", "HR", "HT", "HU", "ID", "IE", "IL", "IN", "IQ", "IS", "IT", "JM", "JO", "JP", "KE", "KG", "KH", "KI", "KM", "KN", "KR", "KW", "KZ", "LA", "LB", "LC", "LI", "LK", "LR", "LS", "LT", "LU", "LV", "LY", "MA", "MC", "MD", "ME", "MG", "MH", "MK", "ML", "MN", "MO", "MR", "MT", "MU", "MV", "MW", "MX", "MY", "MZ", "NA", "NE", "NG", "NI", "NL", "NO", "NP", "NR", "NZ", "OM", "PA", "PE", "PG", "PH", "PK", "PL", "PS", "PT", "PW", "PY", "QA", "RO", "RS", "RW", "SA", "SB", "SC", "SE", "SG", "SI", "SK", "SL", "SM", "SN", "SR", "ST", "SV", "SZ", "TD", "TG", "TH", "TJ", "TL", "TN", "TO", "TR", "TT", "TV", "TW", "TZ", "UA", "UG", "US", "UY", "UZ", "VC", "VE", "VN", "VU", "WS", "XK", "ZA", "ZM", "ZW"], "disc_number": 1, "duration_ms": 179059, "explicit": true, "external_ids": {"isrc": "USAT21811786"}, "external_urls": {"spotify": "https://open.spotify.com/track/4F60iJFwx0G7x3SNjYWiZP"}, "href": "https://api.spotify.com/v1/tracks/4F60iJFwx0G7x3SNjYWiZP", "id": "4F60iJFwx0G7x3SNjYWiZP", "is_local": false, "name": "Nascar", "popularity": 51, "preview_url": "https://p.scdn.co/mp3-preview/9b6b217f37f7be62a3c0a30c03989e43dbdb97c8?cid=774b29d4f13844c495f206cafdad9c86", "track_number": 3, "type": "track", "uri": "spotify:track:4F60iJFwx0G7x3SNjYWiZP"}], "limit": 3, "next": "https://api.spotify.com/v1/search?query=Perfect+Time+Roddy+Ricch&type=track&offset=3&limit=3", "offset": 0, "previous": null, "total": 74}}